-------------------------------------------------------------------------------
Test set: com.db.demomidtier.DBConnectorTest
-------------------------------------------------------------------------------
Tests run: 3, Failures: 0, Errors: 0, Skipped: 0, Time elapsed: 1.295 sec
